sequential/fetch-stage/fetch_test.vcd
$date
	Thu Feb 25 01:31:22 2021
$end
$version
	Icarus Verilog
$end
$timescale
	1ps
$end
$scope module fetch_test $end
$var wire 11 ! valP [10:0] $end
$var wire 64 " valC [63:0] $end
$var wire 4 # rB [3:0] $end
$var wire 4 $ rA [3:0] $end
$var wire 1 % need_valC $end
$var wire 1 & need_regids $end
$var wire 4 ' ifun [3:0] $end
$var wire 4 ( icode [3:0] $end
$var reg 1 ) clk $end
$var reg 8 * ibyte [7:0] $end
$var reg 72 + ibytes [71:0] $end
$var reg 11 , pc [10:0] $end
$scope module al $end
$var wire 72 - ibytes [71:0] $end
$var wire 64 . valC [63:0] $end
$var wire 4 / rB [3:0] $end
$var wire 4 0 rA [3:0] $end
$var wire 1 & need_regids $end
$upscope $end
$scope module nrb $end
$var wire 4 1 icode [3:0] $end
$var reg 1 & need_regids $end
$var reg 1 % need_valC $end
$upscope $end
$scope module pc_i $end
$var wire 1 & need_regids $end
$var wire 1 % need_valC $end
$var wire 11 2 pc [10:0] $end
$var wire 11 3 valP [10:0] $end
$upscope $end
$scope module sp $end
$var wire 8 4 ibyte [7:0] $end
$var wire 4 5 ifun [3:0] $end
$var wire 4 6 icode [3:0] $end
$upscope $end
$upscope $end
$enddefinitions $end
#0
$dumpvars
b1011 6
b1001 5
b10111001 4
b10 3
b0 2
b1011 1
b1000 0
b101 /
b1000110101010100100011000100110100111000011110111010110101000100 .
b100011010101010010001100010011010011100001111011101011010100010010000101 -
b0 ,
b100011010101010010001100010011010011100001111011101011010100010010000101 +
b10111001 *
0)
b1011 (
b1001 '
1&
0%
b1000 $
b101 #
b1000110101010100100011000100110100111000011110111010110101000100 "
b10 !
$end
#10000
b1000110001001101001110000111101110101101010001001000010101011001 "
b1000110001001101001110000111101110101101010001001000010101011001 .
1%
b101 $
b101 0
b1101 #
b1101 /
b101 (
b101 1
b101 6
b100 '
b100 5
b100011000100110100111000011110111010110101000100100001010101100101011101 +
b100011000100110100111000011110111010110101000100100001010101100101011101 -
b1010100 *
b1010100 4
b1100 !
b1100 3
b10 ,
b10 2
1)
#20000
b100011101110111001110001001011100011111010111110100000000100001 "
b100011101110111001110001001011100011111010111110100000000100001 .
0%
b1011 $
b1011 0
b1011 #
b1011 /
b10 (
b10 1
b10 6
b101 '
b101 5
b10001110111011100111000100101110001111101011111010000000010000110111011 +
b10001110111011100111000100101110001111101011111010000000010000110111011 -
b100101 *
b100101 4
b1110 !
b1110 3
b1100 ,
b1100 2
0)
#30000
b1001011100011111010111110100000000100001101110111011001010011101 "
b1001011100011111010111110100000000100001101110111011001010011101 .
1%
0&
b1001 $
b1001 0
b1101 #
b1101 /
b111 (
b111 1
b111 6
b111 '
b111 5
b1110001001011100011111010111110100000000100001101110111011001010011101 +
b1110001001011100011111010111110100000000100001101110111011001010011101 -
b1110111 *
b1110111 4
b10111 !
b10111 3
b1110 ,
b1110 2
1)
#40000
b1000110101010100100011000100110100111000011110111010110101000100 "
b1000110101010100100011000100110100111000011110111010110101000100 .
0%
b100 $
b100 0
b100 #
b100 /
b1001 (
b1001 1
b1001 6
b1101 '
b1101 5
b101110011000110101010100100011000100110100111000011110111010110101000100 +
b101110011000110101010100100011000100110100111000011110111010110101000100 -
b10011101 *
b10011101 4
b11000 !
b11000 3
b10111 ,
b10111 2
0)
#50000
1&
b1000 $
b1000 0
b101 #
b101 /
b1011 (
b1011 1
b1011 6
b1001 '
b1001 5
b100011010101010010001100010011010011100001111011101011010100010010000101 +
b100011010101010010001100010011010011100001111011101011010100010010000101 -
b10111001 *
b10111001 4
b11010 !
b11010 3
b11000 ,
b11000 2
1)
#60000
b1000110001001101001110000111101110101101010001001000010101011001 "
b1000110001001101001110000111101110101101010001001000010101011001 .
1%
b101 $
b101 0
b1101 #
b1101 /
b101 (
b101 1
b101 6
b100 '
b100 5
b100011000100110100111000011110111010110101000100100001010101100101011101 +
b100011000100110100111000011110111010110101000100100001010101100101011101 -
b1010100 *
b1010100 4
b100100 !
b100100 3
b11010 ,
b11010 2
0)
#70000
b100011101110111001110001001011100011111010111110100000000100001 "
b100011101110111001110001001011100011111010111110100000000100001 .
0%
b1011 $
b1011 0
b1011 #
b1011 /
b10 (
b10 1
b10 6
b101 '
b101 5
b10001110111011100111000100101110001111101011111010000000010000110111011 +
b10001110111011100111000100101110001111101011111010000000010000110111011 -
b100101 *
b100101 4
b100110 !
b100110 3
b100100 ,
b100100 2
1)
#80000
b1001011100011111010111110100000000100001101110111011001010011101 "
b1001011100011111010111110100000000100001101110111011001010011101 .
1%
0&
b1001 $
b1001 0
b1101 #
b1101 /
b111 (
b111 1
b111 6
b111 '
b111 5
b1110001001011100011111010111110100000000100001101110111011001010011101 +
b1110001001011100011111010111110100000000100001101110111011001010011101 -
b1110111 *
b1110111 4
b101111 !
b101111 3
b100110 ,
b100110 2
0)
#90000
b1000110101010100100011000100110100111000011110111010110101000100 "
b1000110101010100100011000100110100111000011110111010110101000100 .
0%
b100 $
b100 0
b100 #
b100 /
b1001 (
b1001 1
b1001 6
b1101 '
b1101 5
b101110011000110101010100100011000100110100111000011110111010110101000100 +
b101110011000110101010100100011000100110100111000011110111010110101000100 -
b10011101 *
b10011101 4
b110000 !
b110000 3
b101111 ,
b101111 2
1)
#100000
1&
b1000 $
b1000 0
b101 #
b101 /
b1011 (
b1011 1
b1011 6
b1001 '
b1001 5
b100011010101010010001100010011010011100001111011101011010100010010000101 +
b100011010101010010001100010011010011100001111011101011010100010010000101 -
b10111001 *
b10111001 4
b110010 !
b110010 3
b110000 ,
b110000 2
0)
#110000
b1000110001001101001110000111101110101101010001001000010101011001 "
b1000110001001101001110000111101110101101010001001000010101011001 .
1%
b101 $
b101 0
b1101 #
b1101 /
b101 (
b101 1
b101 6
b100 '
b100 5
b100011000100110100111000011110111010110101000100100001010101100101011101 +
b100011000100110100111000011110111010110101000100100001010101100101011101 -
b1010100 *
b1010100 4
b111100 !
b111100 3
b110010 ,
b110010 2
1)
#120000
b100011101110111001110001001011100011111010111110100000000100001 "
b100011101110111001110001001011100011111010111110100000000100001 .
0%
b1011 $
b1011 0
b1011 #
b1011 /
b10 (
b10 1
b10 6
b101 '
b101 5
b10001110111011100111000100101110001111101011111010000000010000110111011 +
b10001110111011100111000100101110001111101011111010000000010000110111011 -
b100101 *
b100101 4
b111110 !
b111110 3
b111100 ,
b111100 2
0)
#130000
b1001011100011111010111110100000000100001101110111011001010011101 "
b1001011100011111010111110100000000100001101110111011001010011101 .
1%
0&
b1001 $
b1001 0
b1101 #
b1101 /
b111 (
b111 1
b111 6
b111 '
b111 5
b1110001001011100011111010111110100000000100001101110111011001010011101 +
b1110001001011100011111010111110100000000100001101110111011001010011101 -
b1110111 *
b1110111 4
b1000111 !
b1000111 3
b111110 ,
b111110 2
1)
#140000
b1011101110110010100111011011100110001101010101001000110001001101 "
b1011101110110010100111011011100110001101010101001000110001001101 .
0%
b100 $
b100 0
b1001 (
b1001 1
b1001 6
b1101 '
b1101 5
b1000011011101110110010100111011011100110001101010101001000110001001101 +
b1000011011101110110010100111011011100110001101010101001000110001001101 -
b10011101 *
b10011101 4
b1001000 !
b1001000 3
b1000111 ,
b1000111 2
0)
#150000
1&
b11 $
b11 0
b1000 #
b1000 /
b10 (
b10 1
b10 6
b1 '
b1 5
b101110111011001010011101101110011000110101010100100011000100110100111000 +
b101110111011001010011101101110011000110101010100100011000100110100111000 -
b100001 *
b100001 4
b1001010 !
b1001010 3
b1001000 ,
b1001000 2
1)
#160000
b1001110110111001100011010101010010001100010011010011100001111011 "
b1001110110111001100011010101010010001100010011010011100001111011 .
b1010 $
b1010 0
b1101 #
b1101 /
b1011 (
b1011 1
b1011 6
b10 '
b10 5
b100111011011100110001101010101001000110001001101001110000111101110101101 +
b100111011011100110001101010101001000110001001101001110000111101110101101 -
b10110010 *
b10110010 4
b1001100 !
b1001100 3
b1001010 ,
b1001010 2
0)
#170000
b1000110101010100100011000100110100111000011110111010110101000100 "
b1000110101010100100011000100110100111000011110111010110101000100 .
b1000 $
b1000 0
b101 #
b101 /
b1001 '
b1001 5
b100011010101010010001100010011010011100001111011101011010100010010000101 +
b100011010101010010001100010011010011100001111011101011010100010010000101 -
b10111001 *
b10111001 4
b1001110 !
b1001110 3
b1001100 ,
b1001100 2
1)
#180000
b1000110001001101001110000111101110101101010001001000010101011001 "
b1000110001001101001110000111101110101101010001001000010101011001 .
1%
b101 $
b101 0
b1101 #
b1101 /
b101 (
b101 1
b101 6
b100 '
b100 5
b100011000100110100111000011110111010110101000100100001010101100101011101 +
b100011000100110100111000011110111010110101000100100001010101100101011101 -
b1010100 *
b1010100 4
b1011000 !
b1011000 3
b1001110 ,
b1001110 2
0)
#190000
b100011101110111001110001001011100011111010111110100000000100001 "
b100011101110111001110001001011100011111010111110100000000100001 .
0%
b1011 $
b1011 0
b1011 #
b1011 /
b10 (
b10 1
b10 6
b101 '
b101 5
b10001110111011100111000100101110001111101011111010000000010000110111011 +
b10001110111011100111000100101110001111101011111010000000010000110111011 -
b100101 *
b100101 4
b1011010 !
b1011010 3
b1011000 ,
b1011000 2
1)
#200000
b1011100 !
b1011100 3
b1011010 ,
b1011010 2
0)
